EESchema Schematic File Version 4
EELAYER 30 0
EELAYER END
$Descr A4 11693 8268
encoding utf-8
Sheet 6 9
Title "hm-env-sensor"
Date "2021-07-04"
Rev "Gen 3"
Comp "HiMinds"
Comment1 "https://www.himinds.com"
Comment2 ""
Comment3 ""
Comment4 ""
$EndDescr
Text HLabel 5200 4950 0    50   Input ~ 0
Yellow
Text HLabel 6600 4950 0    50   Input ~ 0
Red
$Comp
L hm-env-sensor-rescue:Q_NPN_BEC-OLIMEX_Transistors-ESP32-DevKit-Lipo_Rev_A1-rescue Q?
U 1 1 60ADB8C3
P 4400 4900
AR Path="/5EDE049A/60ADB8C3" Ref="Q?"  Part="1" 
AR Path="/60AAA5D4/60ADB8C3" Ref="Q4"  Part="1" 
F 0 "Q4" H 4591 4854 50  0000 L CNN
F 1 "BC817-40(SOT23)" H 4591 4945 40  0000 L CNN
F 2 "OLIMEX_Transistors-FP:SOT23" H 4600 5000 29  0001 C CNN
F 3 "" H 4400 4900 60  0000 C CNN
	1    4400 4900
	1    0    0    -1  
$EndComp
$Comp
L hm-env-sensor-rescue:Q_NPN_BEC-OLIMEX_Transistors-ESP32-DevKit-Lipo_Rev_A1-rescue Q?
U 1 1 60ADBD07
P 5800 4900
AR Path="/5EDE049A/60ADBD07" Ref="Q?"  Part="1" 
AR Path="/60AAA5D4/60ADBD07" Ref="Q5"  Part="1" 
F 0 "Q5" H 5991 4854 50  0000 L CNN
F 1 "BC817-40(SOT23)" H 5991 4945 40  0000 L CNN
F 2 "OLIMEX_Transistors-FP:SOT23" H 6000 5000 29  0001 C CNN
F 3 "" H 5800 4900 60  0000 C CNN
	1    5800 4900
	1    0    0    -1  
$EndComp
$Comp
L hm-env-sensor-rescue:Q_NPN_BEC-OLIMEX_Transistors-ESP32-DevKit-Lipo_Rev_A1-rescue Q?
U 1 1 60ADC031
P 7200 4900
AR Path="/5EDE049A/60ADC031" Ref="Q?"  Part="1" 
AR Path="/60AAA5D4/60ADC031" Ref="Q6"  Part="1" 
F 0 "Q6" H 7391 4854 50  0000 L CNN
F 1 "BC817-40(SOT23)" H 7391 4945 40  0000 L CNN
F 2 "OLIMEX_Transistors-FP:SOT23" H 7400 5000 29  0001 C CNN
F 3 "" H 7200 4900 60  0000 C CNN
	1    7200 4900
	1    0    0    -1  
$EndComp
$Comp
L Device:LED D3
U 1 1 60ADCBD1
P 4100 4450
F 0 "D3" V 4139 4332 50  0000 R CNN
F 1 "GREEN" V 4050 4350 50  0000 R CNN
F 2 "hm-env-sensor:155124RS73200" H 4100 4450 50  0001 C CNN
F 3 "~" H 4100 4450 50  0001 C CNN
	1    4100 4450
	0    -1   -1   0   
$EndComp
$Comp
L Device:LED D2
U 1 1 60ADD639
P 4100 4050
F 0 "D2" V 4139 3932 50  0000 R CNN
F 1 "GREEN" V 4050 3950 50  0000 R CNN
F 2 "hm-env-sensor:155124RS73200" H 4100 4050 50  0001 C CNN
F 3 "~" H 4100 4050 50  0001 C CNN
	1    4100 4050
	0    -1   -1   0   
$EndComp
$Comp
L Device:LED D5
U 1 1 60ADDAAB
P 4500 4450
F 0 "D5" V 4539 4332 50  0000 R CNN
F 1 "GREEN" V 4450 4350 50  0000 R CNN
F 2 "hm-env-sensor:155124RS73200" H 4500 4450 50  0001 C CNN
F 3 "~" H 4500 4450 50  0001 C CNN
	1    4500 4450
	0    -1   -1   0   
$EndComp
$Comp
L Device:LED D4
U 1 1 60ADDFFC
P 4500 4050
F 0 "D4" V 4539 3932 50  0000 R CNN
F 1 "GREEN" V 4450 3950 50  0000 R CNN
F 2 "hm-env-sensor:155124RS73200" H 4500 4050 50  0001 C CNN
F 3 "~" H 4500 4050 50  0001 C CNN
	1    4500 4050
	0    -1   -1   0   
$EndComp
$Comp
L Device:LED D9
U 1 1 60ADFD4D
P 5500 4450
F 0 "D9" V 5539 4332 50  0000 R CNN
F 1 "YELLOW" V 5450 4400 50  0000 R CNN
F 2 "hm-env-sensor:155124RS73200" H 5500 4450 50  0001 C CNN
F 3 "~" H 5500 4450 50  0001 C CNN
	1    5500 4450
	0    -1   -1   0   
$EndComp
$Comp
L Device:LED D8
U 1 1 60ADFD53
P 5500 4050
F 0 "D8" V 5539 3932 50  0000 R CNN
F 1 "YELLOW" V 5450 4000 50  0000 R CNN
F 2 "hm-env-sensor:155124RS73200" H 5500 4050 50  0001 C CNN
F 3 "~" H 5500 4050 50  0001 C CNN
	1    5500 4050
	0    -1   -1   0   
$EndComp
$Comp
L Device:LED D11
U 1 1 60ADFD59
P 5900 4450
F 0 "D11" V 5939 4332 50  0000 R CNN
F 1 "YELLOW" V 5850 4400 50  0000 R CNN
F 2 "hm-env-sensor:155124RS73200" H 5900 4450 50  0001 C CNN
F 3 "~" H 5900 4450 50  0001 C CNN
	1    5900 4450
	0    -1   -1   0   
$EndComp
$Comp
L Device:LED D10
U 1 1 60ADFD5F
P 5900 4050
F 0 "D10" V 5939 3932 50  0000 R CNN
F 1 "YELLOW" V 5850 4000 50  0000 R CNN
F 2 "hm-env-sensor:155124RS73200" H 5900 4050 50  0001 C CNN
F 3 "~" H 5900 4050 50  0001 C CNN
	1    5900 4050
	0    -1   -1   0   
$EndComp
$Comp
L Device:LED D15
U 1 1 60AE0FE1
P 6900 4450
F 0 "D15" V 6939 4332 50  0000 R CNN
F 1 "RED" V 6848 4332 50  0000 R CNN
F 2 "hm-env-sensor:155124RS73200" H 6900 4450 50  0001 C CNN
F 3 "~" H 6900 4450 50  0001 C CNN
	1    6900 4450
	0    -1   -1   0   
$EndComp
$Comp
L Device:LED D14
U 1 1 60AE0FE7
P 6900 4050
F 0 "D14" V 6939 3932 50  0000 R CNN
F 1 "RED" V 6848 3932 50  0000 R CNN
F 2 "hm-env-sensor:155124RS73200" H 6900 4050 50  0001 C CNN
F 3 "~" H 6900 4050 50  0001 C CNN
	1    6900 4050
	0    -1   -1   0   
$EndComp
$Comp
L Device:LED D17
U 1 1 60AE0FED
P 7300 4450
F 0 "D17" V 7339 4332 50  0000 R CNN
F 1 "RED" V 7248 4332 50  0000 R CNN
F 2 "hm-env-sensor:155124RS73200" H 7300 4450 50  0001 C CNN
F 3 "~" H 7300 4450 50  0001 C CNN
	1    7300 4450
	0    -1   -1   0   
$EndComp
$Comp
L Device:LED D16
U 1 1 60AE0FF3
P 7300 4050
F 0 "D16" V 7339 3932 50  0000 R CNN
F 1 "RED" V 7248 3932 50  0000 R CNN
F 2 "hm-env-sensor:155124RS73200" H 7300 4050 50  0001 C CNN
F 3 "~" H 7300 4050 50  0001 C CNN
	1    7300 4050
	0    -1   -1   0   
$EndComp
Text Notes 4600 3250 2    50   ~ 0
Green\n
Text Notes 6000 3250 2    50   ~ 0
Yellow
Text Notes 7350 3250 2    50   ~ 0
Red
Wire Wire Line
	4100 3450 4100 3500
Wire Wire Line
	4500 3500 4500 3450
Connection ~ 4500 3450
Wire Wire Line
	4500 3450 4100 3450
Wire Wire Line
	5500 3500 5500 3450
Connection ~ 5500 3450
Wire Wire Line
	6900 3500 6900 3450
Wire Wire Line
	4100 3800 4100 3900
Wire Wire Line
	4500 3800 4500 3900
Wire Wire Line
	4100 4200 4100 4300
Wire Wire Line
	4500 4200 4500 4300
Wire Wire Line
	5500 4200 5500 4300
Wire Wire Line
	5900 4200 5900 4300
Wire Wire Line
	5500 3800 5500 3900
Wire Wire Line
	5900 3800 5900 3900
Wire Wire Line
	6900 3800 6900 3900
Wire Wire Line
	7300 3800 7300 3900
Wire Wire Line
	7300 4200 7300 4300
Wire Wire Line
	6900 4200 6900 4300
Wire Wire Line
	4100 4600 4100 4650
Wire Wire Line
	4500 4650 4500 4600
Wire Wire Line
	5500 4600 5500 4650
Wire Wire Line
	5900 4650 5900 4600
Wire Wire Line
	6900 4600 6900 4650
Wire Wire Line
	7300 4650 7300 4600
Wire Wire Line
	7300 3450 7300 3500
Text HLabel 3800 4950 0    50   Input ~ 0
Green
Wire Wire Line
	4150 4950 4200 4950
Wire Wire Line
	4200 4950 4200 4900
Wire Wire Line
	4200 5000 4200 4950
Connection ~ 4200 4950
Wire Wire Line
	7000 5000 7000 4950
Wire Wire Line
	6950 4950 7000 4950
Connection ~ 7000 4950
Wire Wire Line
	7000 4950 7000 4900
Wire Wire Line
	5600 4900 5600 4950
Wire Wire Line
	5550 4950 5600 4950
Connection ~ 5600 4950
Wire Wire Line
	5600 4950 5600 5000
Text Notes 8000 2900 2    50   ~ 0
https://www.digikey.se/product-detail/sv/w%C3%BCrth-elektronik/155124RS73200/732-5025-1-ND/4490039
Wire Wire Line
	5500 3450 5900 3450
Connection ~ 4500 5450
Connection ~ 7300 4650
Wire Wire Line
	7300 4700 7300 4650
Wire Wire Line
	7000 5400 7000 5450
Connection ~ 7000 5450
Wire Wire Line
	7000 5450 7300 5450
Connection ~ 5900 5450
Wire Wire Line
	5900 5450 7000 5450
Wire Wire Line
	4500 5450 5600 5450
Wire Wire Line
	4200 5400 4200 5450
Wire Wire Line
	4200 5450 4500 5450
Wire Wire Line
	3800 4950 3850 4950
Wire Wire Line
	5200 4950 5250 4950
Wire Wire Line
	6600 4950 6650 4950
Wire Wire Line
	5600 5400 5600 5450
Connection ~ 5600 5450
Wire Wire Line
	5600 5450 5900 5450
Wire Wire Line
	5900 4700 5900 4650
Connection ~ 5900 4650
Wire Wire Line
	4500 4700 4500 4650
Connection ~ 4500 4650
Wire Wire Line
	4100 4650 4500 4650
Wire Wire Line
	5500 4650 5900 4650
Wire Wire Line
	6900 4650 7300 4650
Wire Wire Line
	5900 3500 5900 3450
Connection ~ 5900 3450
Connection ~ 6900 3450
Wire Wire Line
	6900 3450 7300 3450
Wire Wire Line
	4050 3400 4050 3450
Wire Wire Line
	4050 3450 4100 3450
Connection ~ 4100 3450
$Comp
L hm-env-sensor-rescue:GND-OLIMEX_Power-ESP32-DevKit-Lipo_Rev_A1-rescue #PWR?
U 1 1 60EDB944
P 4050 5500
AR Path="/60EDB944" Ref="#PWR?"  Part="1" 
AR Path="/60AAA5D4/60EDB944" Ref="#PWR016"  Part="1" 
F 0 "#PWR016" H 4050 5250 50  0001 C CNN
F 1 "GND" H 4050 5350 50  0000 C CNN
F 2 "" H 4050 5500 60  0000 C CNN
F 3 "" H 4050 5500 60  0000 C CNN
	1    4050 5500
	1    0    0    -1  
$EndComp
Connection ~ 4200 5450
Wire Wire Line
	4050 5500 4050 5450
Wire Wire Line
	4050 5450 4200 5450
$Comp
L hm-env-sensor-rescue:+5V-OLIMEX_Power-ESP32-DevKit-Lipo_Rev_A1-rescue #PWR?
U 1 1 611A1BFE
P 4050 3400
AR Path="/611A1BFE" Ref="#PWR?"  Part="1" 
AR Path="/5EEAAF9D/611A1BFE" Ref="#PWR?"  Part="1" 
AR Path="/60AAA5D4/611A1BFE" Ref="#PWR015"  Part="1" 
F 0 "#PWR015" H 4050 3250 50  0001 C CNN
F 1 "+5V" H 4050 3540 50  0000 C CNN
F 2 "" H 4050 3400 60  0000 C CNN
F 3 "" H 4050 3400 60  0000 C CNN
	1    4050 3400
	1    0    0    -1  
$EndComp
$Comp
L hm-env-sensor-rescue:R-OLIMEX_RCL-ESP32-DevKit-Lipo_Rev_A1-rescue R?
U 1 1 61231584
P 4500 3650
AR Path="/5EDE049A/61231584" Ref="R?"  Part="1" 
AR Path="/60AAA5D4/61231584" Ref="R9"  Part="1" 
F 0 "R9" V 4550 3800 50  0000 C CNN
F 1 "68R/R0603" H 4450 3550 50  0000 C CNN
F 2 "OLIMEX_RLC-FP:R_0603_5MIL_DWS" H 4500 3580 30  0001 C CNN
F 3 "" V 4500 3650 30  0000 C CNN
F 4 "Value 1" H 4500 3650 60  0001 C CNN "Fieldname 1"
F 5 "Value2" H 4500 3650 60  0001 C CNN "Fieldname2"
F 6 "Value3" H 4500 3650 60  0001 C CNN "Fieldname3"
	1    4500 3650
	0    -1   -1   0   
$EndComp
$Comp
L hm-env-sensor-rescue:R-OLIMEX_RCL-ESP32-DevKit-Lipo_Rev_A1-rescue R?
U 1 1 61231B51
P 4100 3650
AR Path="/5EDE049A/61231B51" Ref="R?"  Part="1" 
AR Path="/60AAA5D4/61231B51" Ref="R7"  Part="1" 
F 0 "R7" V 4150 3800 50  0000 C CNN
F 1 "68R/R0603" H 4050 3550 50  0000 C CNN
F 2 "OLIMEX_RLC-FP:R_0603_5MIL_DWS" H 4100 3580 30  0001 C CNN
F 3 "" V 4100 3650 30  0000 C CNN
F 4 "Value 1" H 4100 3650 60  0001 C CNN "Fieldname 1"
F 5 "Value2" H 4100 3650 60  0001 C CNN "Fieldname2"
F 6 "Value3" H 4100 3650 60  0001 C CNN "Fieldname3"
	1    4100 3650
	0    -1   -1   0   
$EndComp
$Comp
L hm-env-sensor-rescue:4.7KOHM-1_10W-1%(0603)-SparkFun_BME280_Breakout_v10-eagle-import-ESP32-DevKit-Lipo_Rev_A1-rescue R?
U 1 1 61245C8D
P 4200 5200
AR Path="/61245C8D" Ref="R?"  Part="1" 
AR Path="/60AAA5D4/61245C8D" Ref="R8"  Part="1" 
F 0 "R8" V 4200 5000 59  0000 L BNN
F 1 "10k/R0603" V 4150 5250 59  0000 L BNN
F 2 "OLIMEX_RLC-FP:R_0603_5MIL_DWS" H 4200 5200 50  0001 C CNN
F 3 "" H 4200 5200 50  0001 C CNN
	1    4200 5200
	0    -1   -1   0   
$EndComp
Wire Wire Line
	4500 5100 4500 5450
Wire Wire Line
	5900 5100 5900 5450
Wire Wire Line
	7300 5100 7300 5450
$Comp
L hm-env-sensor-rescue:4.7KOHM-1_10W-1%(0603)-SparkFun_BME280_Breakout_v10-eagle-import-ESP32-DevKit-Lipo_Rev_A1-rescue R?
U 1 1 6126C8F8
P 5600 5200
AR Path="/6126C8F8" Ref="R?"  Part="1" 
AR Path="/60AAA5D4/6126C8F8" Ref="R19"  Part="1" 
F 0 "R19" V 5600 5000 59  0000 L BNN
F 1 "10k/R0603" V 5550 5250 59  0000 L BNN
F 2 "OLIMEX_RLC-FP:R_0603_5MIL_DWS" H 5600 5200 50  0001 C CNN
F 3 "" H 5600 5200 50  0001 C CNN
	1    5600 5200
	0    -1   -1   0   
$EndComp
$Comp
L hm-env-sensor-rescue:4.7KOHM-1_10W-1%(0603)-SparkFun_BME280_Breakout_v10-eagle-import-ESP32-DevKit-Lipo_Rev_A1-rescue R?
U 1 1 6126D2FE
P 7000 5200
AR Path="/6126D2FE" Ref="R?"  Part="1" 
AR Path="/60AAA5D4/6126D2FE" Ref="R25"  Part="1" 
F 0 "R25" V 7000 5000 59  0000 L BNN
F 1 "10k/R0603" V 6950 5250 59  0000 L BNN
F 2 "OLIMEX_RLC-FP:R_0603_5MIL_DWS" H 7000 5200 50  0001 C CNN
F 3 "" H 7000 5200 50  0001 C CNN
	1    7000 5200
	0    -1   -1   0   
$EndComp
$Comp
L hm-env-sensor-rescue:R-OLIMEX_RCL-ESP32-DevKit-Lipo_Rev_A1-rescue R?
U 1 1 61270237
P 5500 3650
AR Path="/5EDE049A/61270237" Ref="R?"  Part="1" 
AR Path="/60AAA5D4/61270237" Ref="R18"  Part="1" 
F 0 "R18" V 5550 3800 50  0000 C CNN
F 1 "220R/R0603" H 5450 3550 50  0000 C CNN
F 2 "OLIMEX_RLC-FP:R_0603_5MIL_DWS" H 5500 3580 30  0001 C CNN
F 3 "" V 5500 3650 30  0000 C CNN
F 4 "Value 1" H 5500 3650 60  0001 C CNN "Fieldname 1"
F 5 "Value2" H 5500 3650 60  0001 C CNN "Fieldname2"
F 6 "Value3" H 5500 3650 60  0001 C CNN "Fieldname3"
	1    5500 3650
	0    -1   -1   0   
$EndComp
$Comp
L hm-env-sensor-rescue:R-OLIMEX_RCL-ESP32-DevKit-Lipo_Rev_A1-rescue R?
U 1 1 61272888
P 5900 3650
AR Path="/5EDE049A/61272888" Ref="R?"  Part="1" 
AR Path="/60AAA5D4/61272888" Ref="R20"  Part="1" 
F 0 "R20" V 5950 3800 50  0000 C CNN
F 1 "220R/R0603" H 5850 3550 50  0000 C CNN
F 2 "OLIMEX_RLC-FP:R_0603_5MIL_DWS" H 5900 3580 30  0001 C CNN
F 3 "" V 5900 3650 30  0000 C CNN
F 4 "Value 1" H 5900 3650 60  0001 C CNN "Fieldname 1"
F 5 "Value2" H 5900 3650 60  0001 C CNN "Fieldname2"
F 6 "Value3" H 5900 3650 60  0001 C CNN "Fieldname3"
	1    5900 3650
	0    -1   -1   0   
$EndComp
$Comp
L hm-env-sensor-rescue:R-OLIMEX_RCL-ESP32-DevKit-Lipo_Rev_A1-rescue R?
U 1 1 612735D2
P 6900 3650
AR Path="/5EDE049A/612735D2" Ref="R?"  Part="1" 
AR Path="/60AAA5D4/612735D2" Ref="R24"  Part="1" 
F 0 "R24" V 6950 3800 50  0000 C CNN
F 1 "220R/R0603" H 6850 3550 50  0000 C CNN
F 2 "OLIMEX_RLC-FP:R_0603_5MIL_DWS" H 6900 3580 30  0001 C CNN
F 3 "" V 6900 3650 30  0000 C CNN
F 4 "Value 1" H 6900 3650 60  0001 C CNN "Fieldname 1"
F 5 "Value2" H 6900 3650 60  0001 C CNN "Fieldname2"
F 6 "Value3" H 6900 3650 60  0001 C CNN "Fieldname3"
	1    6900 3650
	0    -1   -1   0   
$EndComp
$Comp
L hm-env-sensor-rescue:R-OLIMEX_RCL-ESP32-DevKit-Lipo_Rev_A1-rescue R?
U 1 1 61273C8B
P 7300 3650
AR Path="/5EDE049A/61273C8B" Ref="R?"  Part="1" 
AR Path="/60AAA5D4/61273C8B" Ref="R27"  Part="1" 
F 0 "R27" V 7350 3800 50  0000 C CNN
F 1 "220R/R0603" H 7250 3550 50  0000 C CNN
F 2 "OLIMEX_RLC-FP:R_0603_5MIL_DWS" H 7300 3580 30  0001 C CNN
F 3 "" V 7300 3650 30  0000 C CNN
F 4 "Value 1" H 7300 3650 60  0001 C CNN "Fieldname 1"
F 5 "Value2" H 7300 3650 60  0001 C CNN "Fieldname2"
F 6 "Value3" H 7300 3650 60  0001 C CNN "Fieldname3"
	1    7300 3650
	0    -1   -1   0   
$EndComp
$Comp
L hm-env-sensor-rescue:R-OLIMEX_RCL-ESP32-DevKit-Lipo_Rev_A1-rescue R?
U 1 1 61279F48
P 4000 4950
AR Path="/5EDE049A/61279F48" Ref="R?"  Part="1" 
AR Path="/60AAA5D4/61279F48" Ref="R1"  Part="1" 
F 0 "R1" H 4000 5050 50  0000 C CNN
F 1 "560R/R0603" H 3950 4850 50  0000 C CNN
F 2 "OLIMEX_RLC-FP:R_0603_5MIL_DWS" H 4000 4880 30  0001 C CNN
F 3 "" V 4000 4950 30  0000 C CNN
F 4 "Value 1" H 4000 4950 60  0001 C CNN "Fieldname 1"
F 5 "Value2" H 4000 4950 60  0001 C CNN "Fieldname2"
F 6 "Value3" H 4000 4950 60  0001 C CNN "Fieldname3"
	1    4000 4950
	1    0    0    -1  
$EndComp
$Comp
L hm-env-sensor-rescue:R-OLIMEX_RCL-ESP32-DevKit-Lipo_Rev_A1-rescue R?
U 1 1 61282D27
P 5400 4950
AR Path="/5EDE049A/61282D27" Ref="R?"  Part="1" 
AR Path="/60AAA5D4/61282D27" Ref="R11"  Part="1" 
F 0 "R11" H 5400 5050 50  0000 C CNN
F 1 "560R/R0603" H 5350 4850 50  0000 C CNN
F 2 "OLIMEX_RLC-FP:R_0603_5MIL_DWS" H 5400 4880 30  0001 C CNN
F 3 "" V 5400 4950 30  0000 C CNN
F 4 "Value 1" H 5400 4950 60  0001 C CNN "Fieldname 1"
F 5 "Value2" H 5400 4950 60  0001 C CNN "Fieldname2"
F 6 "Value3" H 5400 4950 60  0001 C CNN "Fieldname3"
	1    5400 4950
	1    0    0    -1  
$EndComp
$Comp
L hm-env-sensor-rescue:R-OLIMEX_RCL-ESP32-DevKit-Lipo_Rev_A1-rescue R?
U 1 1 61283490
P 6800 4950
AR Path="/5EDE049A/61283490" Ref="R?"  Part="1" 
AR Path="/60AAA5D4/61283490" Ref="R23"  Part="1" 
F 0 "R23" H 6800 5050 50  0000 C CNN
F 1 "560R/R0603" H 6750 4850 50  0000 C CNN
F 2 "OLIMEX_RLC-FP:R_0603_5MIL_DWS" H 6800 4880 30  0001 C CNN
F 3 "" V 6800 4950 30  0000 C CNN
F 4 "Value 1" H 6800 4950 60  0001 C CNN "Fieldname 1"
F 5 "Value2" H 6800 4950 60  0001 C CNN "Fieldname2"
F 6 "Value3" H 6800 4950 60  0001 C CNN "Fieldname3"
	1    6800 4950
	1    0    0    -1  
$EndComp
Text Notes 3650 650  0    50   ~ 0
Traffic light\n
Wire Wire Line
	4500 3450 5500 3450
Wire Wire Line
	5900 3450 6900 3450
$EndSCHEMATC
