EESchema Schematic File Version 4
EELAYER 30 0
EELAYER END
$Descr A4 11693 8268
encoding utf-8
Sheet 8 8
Title ""
Date ""
Rev ""
Comp ""
Comment1 ""
Comment2 ""
Comment3 ""
Comment4 ""
$EndDescr
Text HLabel 3650 3350 0    50   Input ~ 0
Yellow
Text HLabel 3650 3450 0    50   Input ~ 0
Green
Text HLabel 3650 3250 0    50   Input ~ 0
Red
$EndSCHEMATC
